{
  "description": "only for webhooks",
  "type": "object",
  "x-examples": {
    "example-1": {
      "className": "IpsDestinationData",
      "endpointUrl": "http://url/webhooks"
    }
  },
  "examples": [
    {
      "className": "IpsDestinationData",
      "endpointUrl": "http://url/webhooks"
    }
  ],
  "properties": {
    "className": {
      "type": "string",
      "minLength": 1
    },
    "endpointUrl": {
      "type": "string",
      "minLength": 1
    }
  },
  "required": [
    "className",
    "endpointUrl"
  ]
}