{
  "description": "",
  "type": "object",
  "x-examples": {
    "example-1": {
      "className": "EmailContact",
      "id": "ab3ae27d-ae8d-45c2-b698-008e55670865",
      "label": "Email Trabajo",
      "email": "mpassada@gmail.com.ar",
      "isActive": true
    }
  },
  "title": "",
  "properties": {
    "className": {
      "type": "string",
      "minLength": 1,
      "example": "EmailContact",
      "readOnly": true
    },
    "id": {
      "type": "string",
      "minLength": 1,
      "example": "877640b8-7b03-4bd6-ba38-77a76ec44e05",
      "readOnly": true
    },
    "label": {
      "type": "string",
      "minLength": 1,
      "example": "Email Trabajo"
    },
    "isActive": {
      "type": "boolean",
      "default": true,
      "readOnly": true
    },
    "email": {
      "type": "string",
      "minLength": 1,
      "example": "nombre@empresa.com.ar"
    }
  },
  "required": [
    "className",
    "id",
    "isActive",
    "email"
  ]
}