{
  "description": "",
  "type": "object",
  "x-examples": {
    "example-1": {
      "id": "5FC800122B8F30B9F719",
      "statusType": {
        "code": "OK",
        "description": "Operando"
      },
      "nextTimeAvailability": "1900-12-31T19:43:12-04:16:48",
      "currentErrors": 0,
      "errorsLimit": 5
    }
  },
  "examples": [
    {
      "id": "5FC800122B8F30B9F719",
      "statusType": {
        "code": "OK",
        "description": "Operando"
      },
      "nextTimeAvailability": "1900-12-31T19:43:12-04:16:48",
      "currentErrors": 0,
      "errorsLimit": 5
    },
    {
      "id": "5FC800122B8F30B9F719",
      "statusType": {
        "code": "ERR",
        "description": "Caído"
      },
      "nextTimeAvailability": "1900-12-31T19:43:12-04:16:48",
      "currentErrors": 5,
      "errorsLimit": 5
    },
    {
      "id": "5FC800122B8F30B9F719",
      "statusType": {
        "code": "I",
        "description": "Inestable"
      },
      "nextTimeAvailability": "1900-12-31T19:43:12-04:16:48",
      "currentErrors": 5,
      "errorsLimit": 5
    }
  ],
  "properties": {
    "id": {
      "type": "string",
      "minLength": 1
    },
    "statusType": {
      "type": "object",
      "required": [
        "code",
        "description"
      ],
      "properties": {
        "code": {
          "type": "string",
          "minLength": 1,
          "enum": [
            "OK",
            "ERR",
            "I"
          ]
        },
        "description": {
          "type": "string",
          "minLength": 1,
          "enum": [
            "Caído",
            "Operando",
            "Inestable"
          ]
        }
      }
    },
    "nextTimeAvailability": {
      "type": "string",
      "minLength": 1
    },
    "currentErrors": {
      "type": "number"
    },
    "errorsLimit": {
      "type": "number"
    }
  },
  "required": [
    "id",
    "statusType",
    "nextTimeAvailability",
    "currentErrors",
    "errorsLimit"
  ],
  "x-internal": true,
  "title": ""
}